[
  {
    "text": "This 26-year-old female student with a history of nil was admitted via ER because of head injury after air crash on 7/23. According to the chart, she suffered from head injury after air crash on 7/23. He was sent to 澎湖三總 and initial consicous coma, E1M2Ve. The brain CT showed left F-T-P SDH and we performed emergent left craniectomy with removal of SDH on 7/23. However, elevated ICP (30mmHg~40mmHg) was noted and brain CT showed right brain swelling and minimal SDH, so we performed right craniectomy for decompression on 7/24. Furtheremore, EVD inserted for hydrocephalus and ICP monitoring on 7/25 (Post OP 22mmHg). Today, as the request of his family, she was transferd to our hospital. Current condition E1M1Ve, pupil:R/L:2.5-/4.0-. vital sign: 98/55mmHg, HR:70/min, under lovophed pump, ICP:9~11mmHg. We let her admission to NSCU for more care.During the hospital days,stable of vital signs was noted.Tranning try corkingtill now.Suggest her discharge and keep NS OPD for regular follow up.     ",
    "id": 12,
    "label": [
      {
        "start": 85,
        "end": 96,
        "text": "head injury",
        "labels": [
          "Disease"
        ]
      },
      {
        "start": 164,
        "end": 175,
        "text": "head injury",
        "labels": [
          "Disease"
        ]
      },
      {
        "start": 233,
        "end": 247,
        "text": "consicous coma",
        "labels": [
          "Disease"
        ]
      },
      {
        "start": 432,
        "end": 452,
        "text": "right brain swelling",
        "labels": [
          "Disease"
        ]
      },
      {
        "start": 457,
        "end": 468,
        "text": "minimal SDH",
        "labels": [
          "Disease"
        ]
      }
    ],
    "annotator": 1,
    "annotation_id": 16,
    "created_at": "2022-02-09T08:39:03.556730Z",
    "updated_at": "2022-02-09T08:39:03.556755Z",
    "lead_time": 66.486
  },
  {
    "text": "This 55y/o female was a case of schizophrenia for 20+ years (initial symptoms: auditory hallucination).Accroding to patient and her sister, patient’s psychotic symptom were noted about 20years ago, included auditory hallucination, perscutory delusion and agitated behavior. She had been admitted in psychiatirc ward and received antipsychotics treatment.She regulalry follow up in 嘉基 and participate daycare ward activities in recent 3 years. During 嘉義基督教日間病房 hospitalization, patient receivedolanzapine 5mg/bid ,trihexyphenidyl 1mg/bid, Beforn 5mg/bid (for muscle relaxiation ),Sennoside 12mg/bid,Gowell 1#/bid.Metformin 500mg/bid, Rosuvastatin 10mg/qd and Glimepiride 2mg/qd for DM.She moved to 臺中 last month (因父母親過世，搬來台中跟姊姊住), She was refered to our day care center for further reabilitation.     ",
    "id": 11,
    "label": [
      {
        "start": 32,
        "end": 45,
        "text": "schizophrenia",
        "labels": [
          "Disease"
        ]
      },
      {
        "start": 207,
        "end": 229,
        "text": "auditory hallucination",
        "labels": [
          "Disease"
        ]
      },
      {
        "start": 231,
        "end": 250,
        "text": "perscutory delusion",
        "labels": [
          "Disease"
        ]
      },
      {
        "start": 255,
        "end": 272,
        "text": "agitated behavior",
        "labels": [
          "Disease"
        ]
      },
      {
        "start": 492,
        "end": 503,
        "text": "dolanzapine",
        "labels": [
          "Chemical"
        ]
      },
      {
        "start": 513,
        "end": 528,
        "text": "trihexyphenidyl",
        "labels": [
          "Chemical"
        ]
      },
      {
        "start": 538,
        "end": 544,
        "text": "Beforn",
        "labels": [
          "Chemical"
        ]
      },
      {
        "start": 579,
        "end": 588,
        "text": "Sennoside",
        "labels": [
          "Chemical"
        ]
      },
      {
        "start": 598,
        "end": 606,
        "text": "Gowell 1",
        "labels": [
          "Chemical"
        ]
      },
      {
        "start": 612,
        "end": 621,
        "text": "Metformin",
        "labels": [
          "Chemical"
        ]
      },
      {
        "start": 633,
        "end": 645,
        "text": "Rosuvastatin",
        "labels": [
          "Chemical"
        ]
      },
      {
        "start": 658,
        "end": 669,
        "text": "Glimepiride",
        "labels": [
          "Chemical"
        ]
      }
    ],
    "annotator": 1,
    "annotation_id": 15,
    "created_at": "2022-02-09T08:37:54.809085Z",
    "updated_at": "2022-02-09T08:37:54.809109Z",
    "lead_time": 82.002
  },
  {
    "text": "This 50-year-old college graduated jobless man with a history of bipolar disorder, type 2 diabetes mellitus, acoustic neuroma and hypertension was admitted via OPD for hay hospital rehabilitation. According to his wife, traffic accident-related ICH with ILOC happened on 2010/07/26. Personality change has been noted after the traffic accident, he became more suspicious afterwards, the symptoms did not fulfill the diagnostic criteria for PTSD, but such fear gradually became delusional, he may afraid that some people may burn his house and suspected that people are following him or monitor him. He had a daughter who had been diagnosed with autism and developmental delay. In September 8th, 2012, he took his illed daughter for a walk at a suburb area. However, he called his wife and informed that their daughter was lost. Autopsy proved his daughter was died from accident later. However, depression, homicidal and referential delusion, delusion of guilt and delusion of being monitored were noted. He was thus admitted to our ward during 2012/09/19-2012/10/23 and treated with aripiprazole 15mg QD with partial response. However, poor adherence was noted at home and his delusional and mood symptoms relapsed. He was thus admitted again on 2012/11/15. After admission, aripiprazole 15mg QD was resumed, and his delusional and depressive symptoms soon improved in one week. His mood seems shifted to hypomanic, with more argumentative attitude, euphoric mood and hypertalkativity were noted. We had informed the patient and family that his hospitalization may be prolonged and HLA-B1502 had been checked for potential augmentative cabamazepine therapy. Discharge against medical advise was arranged on 2012/12/12, and OPD follow up at Dr.吳博倫’s service was arranged.After discharge, he could maintained a fair (around 60-70% of adherence was self-reported) adherence to pharmacotherapy, and lives in a relatively low-stimulus environment (從銀行退休,返鄉種田,和妻子子女同住).        ",
    "id": 10,
    "label": [
      {
        "start": 65,
        "end": 81,
        "text": "bipolar disorder",
        "labels": [
          "Disease"
        ]
      },
      {
        "start": 83,
        "end": 107,
        "text": "type 2 diabetes mellitus",
        "labels": [
          "Disease"
        ]
      },
      {
        "start": 109,
        "end": 125,
        "text": "acoustic neuroma",
        "labels": [
          "Disease"
        ]
      },
      {
        "start": 130,
        "end": 142,
        "text": "hypertension",
        "labels": [
          "Disease"
        ]
      },
      {
        "start": 440,
        "end": 444,
        "text": "PTSD",
        "labels": [
          "Disease"
        ]
      },
      {
        "start": 645,
        "end": 651,
        "text": "autism",
        "labels": [
          "Disease"
        ]
      },
      {
        "start": 656,
        "end": 675,
        "text": "developmental delay",
        "labels": [
          "Disease"
        ]
      },
      {
        "start": 895,
        "end": 905,
        "text": "depression",
        "labels": [
          "Disease"
        ]
      },
      {
        "start": 907,
        "end": 941,
        "text": "homicidal and referential delusion",
        "labels": [
          "Disease"
        ]
      },
      {
        "start": 943,
        "end": 960,
        "text": "delusion of guilt",
        "labels": [
          "Disease"
        ]
      },
      {
        "start": 965,
        "end": 992,
        "text": "delusion of being monitored",
        "labels": [
          "Disease"
        ]
      },
      {
        "start": 1083,
        "end": 1096,
        "text": " aripiprazole",
        "labels": [
          "Chemical"
        ]
      },
      {
        "start": 1276,
        "end": 1288,
        "text": "aripiprazole",
        "labels": [
          "Chemical"
        ]
      }
    ],
    "annotator": 1,
    "annotation_id": 14,
    "created_at": "2022-02-09T08:36:30.876574Z",
    "updated_at": "2022-02-09T08:36:30.876599Z",
    "lead_time": 214.839
  },
  {
    "text": "This 47-year-old female had her mental illness onset when she was 28 years old. She had auditory hallucination , persecutory delusion and delusion of being controlled were notedwhe she was 35 years old (MK92). She was admitted to our acute ward. After medication (Risperidone), supportive psychotherapy, FI, OT, her conditions were improved, unless residual delusional behavior r/o due to mild delusion of control. In addition, inform of husband’s illness (AIDS) was performed, and psychoeducation for self-protection. She was transferred to DH during MK93-99. Risperidone 4mg daily for years was used and her psychiatric condition was stable. Besides, rehabilitation program was arranged including supppotive group therapy, reeducation individal psychotherapy and activity therapy, OT rehab program and nursing care. After discussion with the patient and her family, she was transferred to community rehabilitation center, but transfered back to our DH on MK101.     ",
    "id": 9,
    "label": [
      {
        "start": 88,
        "end": 110,
        "text": "auditory hallucination",
        "labels": [
          "Disease"
        ]
      },
      {
        "start": 113,
        "end": 133,
        "text": "persecutory delusion",
        "labels": [
          "Disease"
        ]
      },
      {
        "start": 264,
        "end": 275,
        "text": "Risperidone",
        "labels": [
          "Chemical"
        ]
      },
      {
        "start": 358,
        "end": 377,
        "text": "delusional behavior",
        "labels": [
          "Disease"
        ]
      },
      {
        "start": 457,
        "end": 461,
        "text": "AIDS",
        "labels": [
          "Disease"
        ]
      },
      {
        "start": 561,
        "end": 572,
        "text": "Risperidone",
        "labels": [
          "Chemical"
        ]
      }
    ],
    "annotator": 1,
    "annotation_id": 13,
    "created_at": "2022-02-09T08:32:53.031393Z",
    "updated_at": "2022-02-09T08:32:53.031419Z",
    "lead_time": 69.291
  },
  {
    "text": "This 43-year-old unemployed woman had mental illness onset since 24 years ago (MK75) while she was 13-year-old (國二), with the initial presentation of self-talking, auditory hallucination with voice conversing and commenting and persecutory delusions. She was initially brought to LMD吳潮聰 and VGH-TC for help under unknown medication. Before 18 years (MK81), she had aggravation of persecutory delusions, auditory hallucination and violence behavior to her mother and sister. She got hallucinatory behavior of jumping off from the second floor and was then admitted to orthopediatric ward during MK81-04-02~04-08, MK81-04-20~05-02, under the impression of L2 compression, left calcaneal fractures, and bed sores. She received the surgical intervention and sequelae of urinary incontinence was noted. Her mental status resulted in deterioration of academic and social function. She had been hospitalized in VGH-TC, CMUH(MK89-01-13~03-24) and 北市療(MK84~MK85-09) for several times. However, poor insight and poor drug compliance were noted. She had the past drug history of refractory reponse to a series of psychotropic agents(haloperidol, sulpiride...etc.). She was then prescribed with clozapine 500~900 mg/d. Under stable condition, she still had residual auditory hallucination, somatic delusions and bizarre delusions.  She was transfered to our day care hospital since MK85~MK99-05-19. Her occupational and social function improved under rehabilitational assistance. She had been admitted to our acute ward for two times in recent two years due to exacerbate of paychotic symptoms and disturbing behaviors(99/5/19~99/7/01 and 100/02/10~100/02/24). After discharge from acute ward, she had regularly rehabilitated at our day care. Last she had been admitted to our acute ward from 100/02/10 to 100/02/24 due to exacerbate of auditory hallucination, persecutory delusion and disturbing behavior due to poor adherence.     ",
    "id": 8,
    "label": [
      {
        "start": 150,
        "end": 162,
        "text": "self-talking",
        "labels": [
          "Disease"
        ]
      },
      {
        "start": 164,
        "end": 187,
        "text": "auditory hallucination ",
        "labels": [
          "Disease"
        ]
      },
      {
        "start": 228,
        "end": 249,
        "text": "persecutory delusions",
        "labels": [
          "Disease"
        ]
      },
      {
        "start": 380,
        "end": 401,
        "text": "persecutory delusions",
        "labels": [
          "Disease"
        ]
      },
      {
        "start": 403,
        "end": 424,
        "text": "auditory hallucinatio",
        "labels": [
          "Disease"
        ]
      },
      {
        "start": 430,
        "end": 447,
        "text": "violence behavior",
        "labels": [
          "Disease"
        ]
      },
      {
        "start": 482,
        "end": 504,
        "text": "hallucinatory behavior",
        "labels": [
          "Disease"
        ]
      },
      {
        "start": 654,
        "end": 668,
        "text": "L2 compression",
        "labels": [
          "Disease"
        ]
      },
      {
        "start": 670,
        "end": 694,
        "text": "left calcaneal fractures",
        "labels": [
          "Disease"
        ]
      },
      {
        "start": 699,
        "end": 709,
        "text": " bed sores",
        "labels": [
          "Disease"
        ]
      },
      {
        "start": 1122,
        "end": 1133,
        "text": "haloperidol",
        "labels": [
          "Chemical"
        ]
      },
      {
        "start": 1135,
        "end": 1144,
        "text": "sulpiride",
        "labels": [
          "Chemical"
        ]
      },
      {
        "start": 1183,
        "end": 1192,
        "text": "clozapine",
        "labels": [
          "Chemical"
        ]
      },
      {
        "start": 1254,
        "end": 1276,
        "text": "auditory hallucination",
        "labels": [
          "Disease"
        ]
      },
      {
        "start": 1278,
        "end": 1295,
        "text": "somatic delusions",
        "labels": [
          "Disease"
        ]
      },
      {
        "start": 1300,
        "end": 1317,
        "text": "bizarre delusions",
        "labels": [
          "Disease"
        ]
      },
      {
        "start": 1825,
        "end": 1847,
        "text": "auditory hallucination",
        "labels": [
          "Disease"
        ]
      },
      {
        "start": 1849,
        "end": 1869,
        "text": "persecutory delusion",
        "labels": [
          "Disease"
        ]
      },
      {
        "start": 1874,
        "end": 1893,
        "text": "disturbing behavior",
        "labels": [
          "Disease"
        ]
      }
    ],
    "annotator": 1,
    "annotation_id": 12,
    "created_at": "2022-02-09T08:31:41.700255Z",
    "updated_at": "2022-02-09T08:31:41.700282Z",
    "lead_time": 194.571
  },
  {
    "text": "This 51 years-old housewife had her mental illness developed since MK95 and the initial presentations were low mood, decreased appetide and insomnia. She visted LMD for medication. Full remission was noted. She could maintain housekeeping and help family work as selling furniture. However, she has low mood, inattentive, decreased energy, hypoactivity, insomnia and somatic discomfort in recent in MK98. Her symptoms waxed and waned, but her function was not good enough to maintain work. She was followed up at 中山 psy OPD with duloxetine 60mg using. However, she has persecutory delusion, delusion of being monitered, anxious mood,multiple plans, buying spree and increased goal director activity, and she was admitted to our acute ward during 100/11-100/12. She was treatedwith risperidone and depakin, her psychosis was partial remission and more stable mood.She was refered to daycare for further rehabilitations.     ",
    "id": 7,
    "label": [
      {
        "start": 107,
        "end": 115,
        "text": "low mood",
        "labels": [
          "Disease"
        ]
      },
      {
        "start": 117,
        "end": 135,
        "text": "decreased appetide",
        "labels": [
          "Disease"
        ]
      },
      {
        "start": 140,
        "end": 148,
        "text": "insomnia",
        "labels": [
          "Disease"
        ]
      },
      {
        "start": 299,
        "end": 307,
        "text": "low mood",
        "labels": [
          "Disease"
        ]
      },
      {
        "start": 308,
        "end": 320,
        "text": " inattentive",
        "labels": [
          "Disease"
        ]
      },
      {
        "start": 322,
        "end": 338,
        "text": "decreased energy",
        "labels": [
          "Disease"
        ]
      },
      {
        "start": 340,
        "end": 352,
        "text": "hypoactivity",
        "labels": [
          "Disease"
        ]
      },
      {
        "start": 354,
        "end": 362,
        "text": "insomnia",
        "labels": [
          "Disease"
        ]
      },
      {
        "start": 367,
        "end": 385,
        "text": "somatic discomfort",
        "labels": [
          "Disease"
        ]
      },
      {
        "start": 529,
        "end": 539,
        "text": "duloxetine",
        "labels": [
          "Chemical"
        ]
      },
      {
        "start": 569,
        "end": 589,
        "text": "persecutory delusion",
        "labels": [
          "Disease"
        ]
      },
      {
        "start": 590,
        "end": 618,
        "text": " delusion of being monitered",
        "labels": [
          "Disease"
        ]
      },
      {
        "start": 620,
        "end": 632,
        "text": "anxious mood",
        "labels": [
          "Disease"
        ]
      },
      {
        "start": 781,
        "end": 793,
        "text": "risperidone ",
        "labels": [
          "Chemical"
        ]
      },
      {
        "start": 797,
        "end": 804,
        "text": "depakin",
        "labels": [
          "Chemical"
        ]
      }
    ],
    "annotator": 1,
    "annotation_id": 11,
    "created_at": "2022-02-09T08:28:24.565847Z",
    "updated_at": "2022-02-09T08:28:24.565871Z",
    "lead_time": 123.498
  },
  {
    "text": "This 44 y/o divorced woman was admitted for social skill and occupational function rehabilitation. Her mental illness developed since MK80 and the initial presentation were auditory hallucination, self-talking, inattentive, outside wandering, delusion of being controlled. She was sent to 靜和 hosptal and poor drug compalince was noted. She was hospitalization at 嘉義太和醫院 and 靜和 acute ward for several times during MK81-94. She could do part-time job as helping her mother(美髮業: wash hair) with fair quality. ",
    "id": 6,
    "label": [
      {
        "start": 173,
        "end": 195,
        "text": "auditory hallucination",
        "labels": [
          "Disease"
        ]
      },
      {
        "start": 197,
        "end": 209,
        "text": "self-talking",
        "labels": [
          "Disease"
        ]
      },
      {
        "start": 211,
        "end": 222,
        "text": "inattentive",
        "labels": [
          "Disease"
        ]
      },
      {
        "start": 224,
        "end": 241,
        "text": "outside wandering",
        "labels": [
          "Disease"
        ]
      },
      {
        "start": 243,
        "end": 251,
        "text": "delusion",
        "labels": [
          "Disease"
        ]
      }
    ],
    "annotator": 1,
    "annotation_id": 10,
    "created_at": "2022-02-09T08:26:17.835838Z",
    "updated_at": "2022-02-09T08:26:17.835861Z",
    "lead_time": 49.408
  },
  {
    "text": "This 56 y/o man was admitted for building regular daily routine and social function and occupational function rehabilitation. His mental illness was noted about 20+ years ago with the presentation of persecutory delusion and auditory hallucination. Functional impairment was also noted at that time and he could not maintain a job anymore for 20+ years. He was brought to LMD where unknown medication was prescribed. He still had some auditory hallucination and loose daily life. He had not ever admitted to psychiatric acute ward. He could help housework but poor quality was noted.He was hospitalized in 中榮 day care for 10+ years and received rehabilitation program there.However, EPS was noted with the presentation of drooling and bradykinesia. He quitted 中榮 day care and follow up in OPD of 彰基鹿東分院. The antipsychotics was switched to Olanzapine 10mg BID and less EPS was noted. Then he was brought to our day care for further rehabilitation program on 100/7.     ",
    "id": 5,
    "label": [
      {
        "start": 200,
        "end": 221,
        "text": "persecutory delusion ",
        "labels": [
          "Disease"
        ]
      },
      {
        "start": 225,
        "end": 247,
        "text": "auditory hallucination",
        "labels": [
          "Disease"
        ]
      },
      {
        "start": 249,
        "end": 270,
        "text": "Functional impairment",
        "labels": [
          "Disease"
        ]
      },
      {
        "start": 435,
        "end": 457,
        "text": "auditory hallucination",
        "labels": [
          "Disease"
        ]
      },
      {
        "start": 722,
        "end": 730,
        "text": "drooling",
        "labels": [
          "Disease"
        ]
      },
      {
        "start": 735,
        "end": 747,
        "text": "bradykinesia",
        "labels": [
          "Disease"
        ]
      },
      {
        "start": 839,
        "end": 849,
        "text": "Olanzapine",
        "labels": [
          "Chemical"
        ]
      }
    ],
    "annotator": 1,
    "annotation_id": 9,
    "created_at": "2022-02-09T08:25:26.659361Z",
    "updated_at": "2022-02-09T08:25:26.659389Z",
    "lead_time": 173.851
  },
  {
    "text": "This 54 y/o single woman with chronic schizophrenia was admitted via our acute care  rehabilitation center after stablized of her disturbing behaviors and aggravation of persecuroty delusion.  Her mental illness was onset when she was 20y/o, but she failed to seek medical help at that time. She had disorganized beahviors in MK 95/7 and was diagnosed with schizophrenia and risperidone 3mg/d was given. However, akathisia and poor appetite noted, and risperiodne was tapered to 1mg/d. She had been admitted to our acute ward during 95/04/13~95/06/02 and then to our day care rehabilitation center from 95/7/17~95/11/14. She alsoregularly foollowed up by home care team with risperidone 25mg every two weeks from 97/9/18~98/01/06. She retried our day-hospital from 99/5/24 and then was admitted to our day-hospital from 99/10/04~100/01/10. She was admooted to our acute wardfrom 100/1/10 to 100/2/12 due to irritation, hostile attitude, disturbing  behavior and outside wandering.     ",
    "id": 4,
    "label": [
      {
        "start": 29,
        "end": 51,
        "text": " chronic schizophrenia",
        "labels": [
          "Disease"
        ]
      },
      {
        "start": 170,
        "end": 190,
        "text": "persecuroty delusion",
        "labels": [
          "Disease"
        ]
      },
      {
        "start": 357,
        "end": 370,
        "text": "schizophrenia",
        "labels": [
          "Disease"
        ]
      },
      {
        "start": 375,
        "end": 386,
        "text": "risperidone",
        "labels": [
          "Chemical"
        ]
      },
      {
        "start": 413,
        "end": 422,
        "text": "akathisia",
        "labels": [
          "Disease"
        ]
      },
      {
        "start": 427,
        "end": 440,
        "text": "poor appetite",
        "labels": [
          "Disease"
        ]
      },
      {
        "start": 451,
        "end": 463,
        "text": " risperiodne",
        "labels": [
          "Chemical"
        ]
      },
      {
        "start": 675,
        "end": 686,
        "text": "risperidone",
        "labels": [
          "Chemical"
        ]
      },
      {
        "start": 907,
        "end": 917,
        "text": "irritation",
        "labels": [
          "Disease"
        ]
      },
      {
        "start": 919,
        "end": 935,
        "text": "hostile attitude",
        "labels": [
          "Disease"
        ]
      },
      {
        "start": 937,
        "end": 957,
        "text": "disturbing behavior",
        "labels": [
          "Disease"
        ]
      },
      {
        "start": 962,
        "end": 979,
        "text": "outside wandering",
        "labels": [
          "Disease"
        ]
      }
    ],
    "annotator": 1,
    "annotation_id": 8,
    "created_at": "2022-02-09T08:22:30.180924Z",
    "updated_at": "2022-02-09T08:22:30.180949Z",
    "lead_time": 120.67
  }
]